PADP 7120 Data Applications in PA
…
- Usually doesn't make sense to create a new dataset with `arrange` but helpful for printing tables

---
# Arrange

- Suppose I wanted to see GA school districts listed from lowest percentages of FRPL students to highest

```r
arrange(ga_schdist, frpl)
```

```
## # A tibble: 223 x 10
##    district charter enroll    lep  sped  frpl white expenditures exp_per_pupil
##    <chr>    <chr>    <dbl>  <dbl> <dbl> <dbl> <dbl>        <dbl>         <dbl>
##  1 STATE C… 3-All …    870  2.07  17.1   0     56.6      4789000         5505.
##  2 STATE C… 3-All …    470 NA      8.51  0     69.6      3312000         7047.
##  3 STATE C… 3-All …    384 NA      4.17  1.82  41.7      3220000         8385.
##  4 COMMISS… 1-All …    820  1.10   8.54 11.6   79.6      6169000         7523.
##  5 CITY SC… 3-All …   4858  1.69   8.46 14.2   63.8     88714000        18261.
##  6 FORSYTH… 3-All …  44286  5.32  12.2  16.5   65.7    540691000        12209.
##  7 OCONEE … 3-All …   7271  2.82  11.1  20.5   79.7     76232000        10484.
##  8 STATE C… 1-All …    927  1.83  10.0  21.6   66.8      8398000         9059.
##  9 CHICKAM… 3-All …   1350  0.296  5.41 22.9   97.1     12611000         9341.
## 10 BREMEN … 3-All …   2222  0.315  8.64 23.9   89.4     25602000        11522.
## # … with 213 more rows, and 1 more variable: non_white <dbl>
```
…
--

```r
stf_f_select %>% 
  group_by(state) %>% 
  summarize(AvgAmount = mean(amount_1000, na.rm = TRUE))
```

```
## `summarise()` ungrouping output (override with `.groups` argument)
```

```
## # A tibble: 50 x 2
##    state        AvgAmount
##    <chr>            <dbl>
##  1 Alabama      30172318.
##  2 Alaska       10253958 
##  3 Arizona      40158735 
##  4 Arkansas     22175064 
##  5 California  324585088.
##  6 Colorado     32998096.
##  7 Connecticut  30170712.
##  8 Delaware      8731273 
##  9 Florida      86898037 
## 10 Georgia      46862728 
## # … with 40 more rows
```
…
